{
  "DroppedItemChest": {
    "DroppedItemChest": {
      "EntityName": "DroppedItemChest",
      "OwnerEntityID": null,
      "DroppedItemEntityID": null,
      "Position": null,
      "Rotation": [
        10.0,
        10.0,
        10.0
      ],
      "SelectionID": null,
      "Graphic": {
        "Mesh": "media/sydney.md2",
        "Texture": "media/sydney.bmp",
        "Scale": [
          10.0,
          10.0,
          10.0
        ],
        "Offset": 42.0
      },
      "Icon": "media/ecs/unknown.png"
    }
  }
}
