{
  "Projectiles" : {
    "testProjectile" : {
      "Position": null,
      "Graphic" : {
        "Offset": 15,
        "Scale": [
          3,
          3,
          3
        ],
        "Mesh": "media/models/irrlicht/faerie.md2",
        "Texture": "media/models/irrlicht/faeriebl.bmp"
      },
      "Damage": null,
      "ProjectileMovement": {
        "Speed": 500
      }
    },
    "testProjectile2" : {
      "Position": null,
      "Graphic" : {
        "Offset": 15,
        "Scale": [
          4,
          4,
          4
        ],
        "Mesh": "media/models/irrlicht/faerie.md2",
        "Texture": "media/models/irrlicht/faerierd.bmp"
      },
      "Damage": null,
      "ProjectileMovement": {
        "Speed": 500
      }
    }
  }
}
